^D:\DOKUMENTY\PROJEKTY\FIT-LTS\LIB\GOOGLETEST\SRC\GTEST-ALL.CC
D:\DOKUMENTY\PROJEKTY\FIT-LTS\LIB\GOOGLETEST\MSVC\GTEST\DEBUG\GTEST\GTEST-ALL.OBJ
D:\DOKUMENTY\PROJEKTY\FIT-LTS\LIB\GOOGLETEST\MSVC\GTEST\DEBUG\GTEST\VC100.PDB
