^D:\DOKUMENTY\PROJEKTY\FIT-LTS\LIB\GOOGLETEST\TEST\GTEST_UNITTEST.CC
D:\DOKUMENTY\PROJEKTY\FIT-LTS\LIB\GOOGLETEST\MSVC\GTEST\DEBUG\GTEST_UNITTEST\GTEST_UNITTEST.OBJ
D:\DOKUMENTY\PROJEKTY\FIT-LTS\LIB\GOOGLETEST\MSVC\GTEST\DEBUG\GTEST_UNITTEST\VC100.PDB
