^D:\DOKUMENTY\PROJEKTY\FIT-LTS\LIB\GOOGLETEST\MSVC\GTEST\DEBUG\GTESTD.LIB|D:\DOKUMENTY\PROJEKTY\FIT-LTS\LIB\GOOGLETEST\MSVC\GTEST\DEBUG\GTEST_MAIND.LIB|D:\DOKUMENTY\PROJEKTY\FIT-LTS\LIB\GOOGLETEST\MSVC\GTEST\DEBUG\GTEST_UNITTEST\GTEST_UNITTEST.EXE.EMBED.MANIFEST.RES|D:\DOKUMENTY\PROJEKTY\FIT-LTS\LIB\GOOGLETEST\MSVC\GTEST\DEBUG\GTEST_UNITTEST\GTEST_UNITTEST.OBJ
C:\PROGRAM FILES (X86)\MICROSOFT SDKS\WINDOWS\V7.0A\LIB\KERNEL32.LIB
C:\PROGRAM FILES (X86)\MICROSOFT SDKS\WINDOWS\V7.0A\LIB\USER32.LIB
C:\PROGRAM FILES (X86)\MICROSOFT SDKS\WINDOWS\V7.0A\LIB\GDI32.LIB
C:\PROGRAM FILES (X86)\MICROSOFT SDKS\WINDOWS\V7.0A\LIB\WINSPOOL.LIB
C:\PROGRAM FILES (X86)\MICROSOFT SDKS\WINDOWS\V7.0A\LIB\COMDLG32.LIB
C:\PROGRAM FILES (X86)\MICROSOFT SDKS\WINDOWS\V7.0A\LIB\ADVAPI32.LIB
C:\PROGRAM FILES (X86)\MICROSOFT SDKS\WINDOWS\V7.0A\LIB\SHELL32.LIB
C:\PROGRAM FILES (X86)\MICROSOFT SDKS\WINDOWS\V7.0A\LIB\OLE32.LIB
C:\PROGRAM FILES (X86)\MICROSOFT SDKS\WINDOWS\V7.0A\LIB\OLEAUT32.LIB
C:\PROGRAM FILES (X86)\MICROSOFT SDKS\WINDOWS\V7.0A\LIB\UUID.LIB
C:\PROGRAM FILES (X86)\MICROSOFT SDKS\WINDOWS\V7.0A\LIB\ODBC32.LIB
C:\PROGRAM FILES (X86)\MICROSOFT SDKS\WINDOWS\V7.0A\LIB\ODBCCP32.LIB
D:\DOKUMENTY\PROJEKTY\FIT-LTS\LIB\GOOGLETEST\MSVC\GTEST\DEBUG\GTEST_UNITTEST\GTEST_UNITTEST.EXE.EMBED.MANIFEST.RES
D:\DOKUMENTY\PROJEKTY\FIT-LTS\LIB\GOOGLETEST\MSVC\GTEST\DEBUG\GTEST_UNITTEST\GTEST_UNITTEST.OBJ
D:\DOKUMENTY\PROJEKTY\FIT-LTS\LIB\GOOGLETEST\MSVC\GTEST\DEBUG\GTESTD.LIB
D:\DOKUMENTY\PROJEKTY\FIT-LTS\LIB\GOOGLETEST\MSVC\GTEST\DEBUG\GTEST_MAIND.LIB
C:\WINDOWS\GLOBALIZATION\SORTING\SORTDEFAULT.NLS
C:\PROGRAM FILES (X86)\MICROSOFT VISUAL STUDIO 10.0\VC\LIB\MSVCPRTD.LIB
C:\PROGRAM FILES (X86)\MICROSOFT VISUAL STUDIO 10.0\VC\LIB\MSVCRTD.LIB
C:\PROGRAM FILES (X86)\MICROSOFT VISUAL STUDIO 10.0\VC\LIB\OLDNAMES.LIB
C:\PROGRAM FILES (X86)\MICROSOFT VISUAL STUDIO 10.0\VC\BIN\CVTRES.EXE
C:\WINDOWS\SYSTEM32\TZRES.DLL
D:\DOKUMENTY\PROJEKTY\FIT-LTS\LIB\GOOGLETEST\MSVC\GTEST\DEBUG\GTEST_UNITTEST.EXE
C:\WINDOWS\SYSTEM32\RSAENH.DLL
D:\DOKUMENTY\PROJEKTY\FIT-LTS\LIB\GOOGLETEST\MSVC\GTEST\DEBUG\GTEST_UNITTEST.PDB
C:\PROGRAM FILES (X86)\MICROSOFT VISUAL STUDIO 10.0\VC\BIN\LINK.EXE
