^D:\DOKUMENTY\PROJEKTY\FIT-LTS\LIB\GOOGLETEST\MSVC\GTEST\RELEASE\GTEST.LIB|D:\DOKUMENTY\PROJEKTY\FIT-LTS\LIB\GOOGLETEST\MSVC\GTEST\RELEASE\GTEST_MAIN.LIB|D:\DOKUMENTY\PROJEKTY\FIT-LTS\LIB\GOOGLETEST\MSVC\GTEST\RELEASE\GTEST_PROD_TEST\GTEST_PROD_TEST.OBJ|D:\DOKUMENTY\PROJEKTY\FIT-LTS\LIB\GOOGLETEST\MSVC\GTEST\RELEASE\GTEST_PROD_TEST\PRODUCTION.OBJ
D:\DOKUMENTY\PROJEKTY\FIT-LTS\LIB\GOOGLETEST\MSVC\GTEST\RELEASE\GTEST_PROD_TEST.EXE
D:\DOKUMENTY\PROJEKTY\FIT-LTS\LIB\GOOGLETEST\MSVC\GTEST\RELEASE\GTEST_PROD_TEST\GTEST_PROD_TEST.EXE.INTERMEDIATE.MANIFEST
D:\DOKUMENTY\PROJEKTY\FIT-LTS\LIB\GOOGLETEST\MSVC\GTEST\RELEASE\GTEST_PROD_TEST.PDB
