^D:\DOKUMENTY\PROJEKTY\FIT-LTS\LIB\GOOGLETEST\MSVC\GTEST\RELEASE\GTEST_MAIN\GTEST_MAIN.OBJ
C:\WINDOWS\SYSTEM32\TZRES.DLL
D:\DOKUMENTY\PROJEKTY\FIT-LTS\LIB\GOOGLETEST\MSVC\GTEST\RELEASE\GTEST_MAIN\GTEST_MAIN.OBJ
