﻿Build started 9.10.2012 14:47:24.
     1>Project "D:\DOKUMENTY\PROJEKTY\FIT-LTS\lib\googletest\msvc\gtest.vcxproj" on node 2 (build target(s)).
     1>C:\Program Files (x86)\MSBuild\Microsoft.Cpp\v4.0\Microsoft.CppBuild.targets(299,5): warning MSB8004: Output Directory does not end with a trailing slash.  This build instance will add the slash as it is required to allow proper evaluation of the Output Directory.
     1>InitializeBuildStatus:
         Creating "D:\DOKUMENTY\PROJEKTY\FIT-LTS\lib\googletest\msvc\..\bingtest\gtest.unsuccessfulbuild" because "AlwaysCreate" was specified.
       ClCompile:
         C:\Program Files (x86)\Microsoft Visual Studio 10.0\VC\bin\CL.exe /c /I.. /I..\include /ZI /nologo /W3 /WX- /Od /Oy- /D WIN32 /D _DEBUG /D _LIB /D _MBCS /Gm /EHsc /RTC1 /MDd /GS /fp:precise /Zc:wchar_t /Zc:forScope /Fo"D:\DOKUMENTY\PROJEKTY\FIT-LTS\lib\googletest\msvc\..\bingtest\\" /Fd"D:\DOKUMENTY\PROJEKTY\FIT-LTS\lib\googletest\msvc\..\bingtest\vc100.pdb" /Gd /TP /analyze- /errorReport:prompt "..\src\gtest-all.cc"
         gtest-all.cc
     1>C:\Program Files (x86)\MSBuild\Microsoft.Cpp\v4.0\Microsoft.CppBuild.targets(1151,5): warning MSB8012: TargetPath(D:\DOKUMENTY\PROJEKTY\FIT-LTS\lib\googletest\msvc\..\bin\gtest.lib) does not match the Library's OutputFile property value (D:\DOKUMENTY\PROJEKTY\FIT-LTS\lib\googletest\bin\gtestd.lib). This may cause your project to build incorrectly. To correct this, please make sure that $(OutDir), $(TargetName) and $(TargetExt) property values match the value specified in %(Lib.OutputFile).
     1>C:\Program Files (x86)\MSBuild\Microsoft.Cpp\v4.0\Microsoft.CppBuild.targets(1153,5): warning MSB8012: TargetName(gtest) does not match the Library's OutputFile property value (gtestd). This may cause your project to build incorrectly. To correct this, please make sure that $(OutDir), $(TargetName) and $(TargetExt) property values match the value specified in %(Lib.OutputFile).
       Lib:
         C:\Program Files (x86)\Microsoft Visual Studio 10.0\VC\bin\Lib.exe /OUT:"D:\DOKUMENTY\PROJEKTY\FIT-LTS\lib\googletest\msvc\..\bin\gtestd.lib" /NOLOGO "D:\DOKUMENTY\PROJEKTY\FIT-LTS\lib\googletest\msvc\..\bingtest\gtest-all.obj"
         gtest.vcxproj -> D:\DOKUMENTY\PROJEKTY\FIT-LTS\lib\googletest\msvc\..\bin\gtest.lib
       FinalizeBuildStatus:
         Deleting file "D:\DOKUMENTY\PROJEKTY\FIT-LTS\lib\googletest\msvc\..\bingtest\gtest.unsuccessfulbuild".
         Touching "D:\DOKUMENTY\PROJEKTY\FIT-LTS\lib\googletest\msvc\..\bingtest\gtest.lastbuildstate".
     1>Done Building Project "D:\DOKUMENTY\PROJEKTY\FIT-LTS\lib\googletest\msvc\gtest.vcxproj" (build target(s)).

Build succeeded.

Time Elapsed 00:00:04.28
