^D:\DOKUMENTY\PROJEKTY\FIT-LTS\LIB\GOOGLETEST\MSVC\GTEST\RELEASE\GTEST.LIB|D:\DOKUMENTY\PROJEKTY\FIT-LTS\LIB\GOOGLETEST\MSVC\GTEST\RELEASE\GTEST_MAIN.LIB|D:\DOKUMENTY\PROJEKTY\FIT-LTS\LIB\GOOGLETEST\MSVC\GTEST\RELEASE\GTEST_UNITTEST\GTEST_UNITTEST.OBJ
/ERRORREPORT:PROMPT /OUT:"gtest/Release\gtest_unittest.exe" /INCREMENTAL:NO /NOLOGO kernel32.lib user32.lib gdi32.lib winspool.lib comdlg32.lib advapi32.lib shell32.lib ole32.lib oleaut32.lib uuid.lib odbc32.lib odbccp32.lib /MANIFEST /ManifestFile:"gtest/Release\gtest_unittest\gtest_unittest.exe.intermediate.manifest" /MANIFESTUAC:"level='asInvoker' uiAccess='false'" /DEBUG /PDB:"D:\DOKUMENTY\PROJEKTY\FIT-LTS\lib\googletest\msvc\gtest\Release\gtest_unittest.pdb" /SUBSYSTEM:CONSOLE /OPT:REF /OPT:ICF /TLBID:1 /DYNAMICBASE /NXCOMPAT /IMPLIB:"gtest/Release\gtest_unittest.lib" /MACHINE:X86 gtest/Release\gtest_unittest\gtest_unittest.obj
"D:\DOKUMENTY\PROJEKTY\FIT-LTS\lib\googletest\msvc\gtest\Release\gtest.lib"
"D:\DOKUMENTY\PROJEKTY\FIT-LTS\lib\googletest\msvc\gtest\Release\gtest_main.lib"
