%!PS-Adobe-3.0 EPSF-3.0
%%DocumentNeededResources: font Helvetica
%%+ font Helvetica-Bold
%%+ font Helvetica-Oblique
%%+ font Helvetica-BoldOblique
%%+ font Symbol
%%Title: R Graphics Output
%%Creator: R Software
%%Pages: (atend)
%%BoundingBox: 46 169 550 673
%%EndComments
%%BeginProlog
/bp  { gs gs } def
% begin .ps.prolog
/gs  { gsave } bind def
/gr  { grestore } bind def
/ep  { showpage gr gr } bind def
/m   { moveto } bind def
/l  { rlineto } bind def
/np  { newpath } bind def
/cp  { closepath } bind def
/f   { fill } bind def
/o   { stroke } bind def
/c   { newpath 0 360 arc } bind def
/r   { 4 2 roll moveto 1 copy 3 -1 roll exch 0 exch rlineto 0 rlineto -1 mul 0 exch rlineto closepath } bind def
/p1  { stroke } bind def
/p2  { gsave bg fill grestore newpath } bind def
/p3  { gsave bg fill grestore stroke } bind def
/p6  { gsave bg eofill grestore newpath } bind def
/p7  { gsave bg eofill grestore stroke } bind def
/t   { 5 -2 roll moveto gsave rotate
       1 index stringwidth pop
       mul neg 0 rmoveto show grestore } bind def
/ta  { 4 -2 roll moveto gsave rotate show } bind def
/tb  { 2 -1 roll 0 rmoveto show } bind def
/cl  { grestore gsave newpath 3 index 3 index moveto 1 index
       4 -1 roll lineto  exch 1 index lineto lineto
       closepath clip newpath } bind def
/rgb { setrgbcolor } bind def
/s   { scalefont setfont } bind def
% end   .ps.prolog
%%IncludeResource: font Helvetica
/Helvetica findfont
dup length dict begin
  {1 index /FID ne {def} {pop pop} ifelse} forall
  /Encoding ISOLatin1Encoding def
  currentdict
  end
/Font1 exch definefont pop
%%IncludeResource: font Helvetica-Bold
/Helvetica-Bold findfont
dup length dict begin
  {1 index /FID ne {def} {pop pop} ifelse} forall
  /Encoding ISOLatin1Encoding def
  currentdict
  end
/Font2 exch definefont pop
%%IncludeResource: font Helvetica-Oblique
/Helvetica-Oblique findfont
dup length dict begin
  {1 index /FID ne {def} {pop pop} ifelse} forall
  /Encoding ISOLatin1Encoding def
  currentdict
  end
/Font3 exch definefont pop
%%IncludeResource: font Helvetica-BoldOblique
/Helvetica-BoldOblique findfont
dup length dict begin
  {1 index /FID ne {def} {pop pop} ifelse} forall
  /Encoding ISOLatin1Encoding def
  currentdict
  end
/Font4 exch definefont pop
%%IncludeResource: font Symbol
/Symbol findfont
dup length dict begin
  {1 index /FID ne {def} {pop pop} ifelse} forall
  currentdict
  end
/Font5 exch definefont pop
%%EndProlog
%%Page: 1 1
bp
104.68 242.76 519.40 613.53 cl
0 setgray
0.75 setlinewidth
[] 0 setdash
1 setlinecap
1 setlinejoin
10.00 setmiterlimit
187.62 302.08 2.70 c p1
353.51 450.39 2.70 c p1
436.45 509.71 2.70 c p1
419.86 569.04 2.70 c p1
270.57 376.24 2.70 c p1
237.39 405.90 2.70 c p1
419.86 480.05 2.70 c p1
370.10 450.39 2.70 c p1
121.27 598.70 2.70 c p1
45.64 169.32 549.64 672.57 cl
0 setgray
0.75 setlinewidth
[] 0 setdash
1 setlinecap
1 setlinejoin
10.00 setmiterlimit
np
104.68 242.76 m
414.72 0 l
o
np
104.68 242.76 m
0 -7.20 l
o
np
187.62 242.76 m
0 -7.20 l
o
np
270.57 242.76 m
0 -7.20 l
o
np
353.51 242.76 m
0 -7.20 l
o
np
436.45 242.76 m
0 -7.20 l
o
np
519.40 242.76 m
0 -7.20 l
o
/Font1 findfont 12 s
104.68 216.84 (160) .5 0 t
187.62 216.84 (165) .5 0 t
270.57 216.84 (170) .5 0 t
353.51 216.84 (175) .5 0 t
436.45 216.84 (180) .5 0 t
519.40 216.84 (185) .5 0 t
np
104.68 242.76 m
0 370.77 l
o
np
104.68 242.76 m
-7.20 0 l
o
np
104.68 316.91 m
-7.20 0 l
o
np
104.68 391.07 m
-7.20 0 l
o
np
104.68 465.22 m
-7.20 0 l
o
np
104.68 539.38 m
-7.20 0 l
o
np
104.68 613.53 m
-7.20 0 l
o
87.40 242.76 (160) .5 90 t
87.40 316.91 (165) .5 90 t
87.40 391.07 (170) .5 90 t
87.40 465.22 (175) .5 90 t
87.40 539.38 (180) .5 90 t
87.40 613.53 (185) .5 90 t
np
104.68 613.53 m
0 -370.77 l
414.72 0 l
o
45.64 169.32 549.64 672.57 cl
/Font1 findfont 12 s
0 setgray
312.04 188.04 (parent height) .5 0 t
58.60 428.14 (child height) .5 90 t
104.68 242.76 519.40 613.53 cl
0 setgray
0.75 setlinewidth
[] 0 setdash
1 setlinecap
1 setlinejoin
10.00 setmiterlimit
np
104.68 420.14 m
414.72 79.92 l
o
/bg { 0 setgray } def
121.27 598.70 2.70 c p2
ep
%%Trailer
%%Pages: 1
%%EOF
