<?xml version="1.0" encoding="UTF-8"?><svg xmlns="http://www.w3.org/2000/svg" xmlns:xlink="http://www.w3.org/1999/xlink" fill-opacity="1" color-rendering="auto" color-interpolation="auto" stroke="black" text-rendering="auto" stroke-linecap="square" width="555" stroke-miterlimit="10" stroke-opacity="1" shape-rendering="auto" fill="black" stroke-dasharray="none" font-weight="normal" stroke-width="1" height="564" font-family="'Dialog'" font-style="normal" stroke-linejoin="miter" font-size="12" stroke-dashoffset="0" image-rendering="auto">
  <!--Generated by ySVG-->
  <defs id="genericDefs"/>
  <g>
    <defs id="defs1">
      <clipPath clipPathUnits="userSpaceOnUse" id="clipPath1">
        <path d="M0 0 L555 0 L555 564 L0 564 L0 0 Z"/>
      </clipPath>
      <clipPath clipPathUnits="userSpaceOnUse" id="clipPath2">
        <path d="M69 -92 L624 -92 L624 472 L69 472 L69 -92 Z"/>
      </clipPath>
    </defs>
    <g font-size="15" stroke-miterlimit="1.45" font-family="sans-serif" transform="matrix(1,0,0,1,-69,92)" stroke-linecap="butt">
      <text x="532.7329" xml:space="preserve" y="309.7655" clip-path="url(#clipPath2)" stroke="none">Wizard - new</text>
    </g>
    <g stroke-dasharray="6,2" stroke-miterlimit="1.45" transform="matrix(1,0,0,1,-69,92)" stroke-linecap="butt">
      <rect x="70.75" y="292.6849" clip-path="url(#clipPath2)" fill="none" width="551.5" rx="4" ry="4" height="178.0588"/>
      <text x="535.9893" y="438.9575" clip-path="url(#clipPath2)" font-family="sans-serif" stroke-dasharray="none" stroke="none" xml:space="preserve">Parameters</text>
      <rect x="526.75" y="412.7437" clip-path="url(#clipPath2)" fill="none" width="80.5" stroke-dasharray="none" height="43"/>
      <text x="226.9023" y="438.9575" clip-path="url(#clipPath2)" font-family="sans-serif" stroke-dasharray="none" stroke="none" xml:space="preserve">Transformations</text>
      <rect x="210.75" y="412.7437" clip-path="url(#clipPath2)" fill="none" width="119" stroke-dasharray="none" height="43"/>
      <text x="99.749" y="431.6069" clip-path="url(#clipPath2)" font-family="sans-serif" stroke-dasharray="none" stroke="none" xml:space="preserve">Mail/Matrix</text>
      <text x="115.7393" y="446.3081" clip-path="url(#clipPath2)" font-family="sans-serif" stroke-dasharray="none" stroke="none" xml:space="preserve">input</text>
      <rect x="85.75" y="412.7437" clip-path="url(#clipPath2)" fill="none" width="86" stroke-dasharray="none" height="43"/>
      <text x="545.9971" y="375.9575" clip-path="url(#clipPath2)" font-family="sans-serif" stroke-dasharray="none" stroke="none" xml:space="preserve">Confirm</text>
      <rect x="526.75" y="349.7437" clip-path="url(#clipPath2)" fill="none" width="80.5" stroke-dasharray="none" height="43"/>
      <text x="243.2383" y="356.2752" clip-path="url(#clipPath2)" font-family="sans-serif" stroke-dasharray="none" stroke="none" xml:space="preserve">Calculator</text>
      <rect x="227.25" y="330.0614" clip-path="url(#clipPath2)" fill="none" width="86" stroke-dasharray="none" height="43"/>
      <text x="399.9082" y="438.9575" clip-path="url(#clipPath2)" font-family="sans-serif" stroke-dasharray="none" stroke="none" xml:space="preserve">Algorithms</text>
      <rect x="368.75" y="412.7437" clip-path="url(#clipPath2)" fill="none" width="119" stroke-dasharray="none" height="43"/>
      <text x="409.5732" y="368.4575" clip-path="url(#clipPath2)" font-family="sans-serif" stroke-dasharray="none" stroke="none" xml:space="preserve">Cancel</text>
      <ellipse clip-path="url(#clipPath2)" fill="none" stroke-dasharray="none" rx="43" cx="428.25" ry="19" cy="363.7437"/>
      <path fill="none" stroke-dasharray="none" d="M171.75 434.2437 L202.75 434.2437" clip-path="url(#clipPath2)"/>
      <path stroke-dasharray="none" d="M210.75 434.2437 L198.75 429.2437 L201.75 434.2437 L198.75 439.2437 Z" clip-path="url(#clipPath2)" stroke="none"/>
      <path fill="none" stroke-dasharray="none" d="M567 412.7437 L567 400.7437" clip-path="url(#clipPath2)"/>
      <path stroke-dasharray="none" d="M567 392.7437 L562 404.7437 L567 401.7437 L572 404.7437 Z" clip-path="url(#clipPath2)" stroke="none"/>
      <path fill="none" stroke-dasharray="none" d="M227.2714 351.5614 L192.425 351.5614 L177.5012 352.1427 L164.5672 353.8868 L153.623 356.7936 L144.6687 360.8631 L140.9378 363.3339 L137.7043 366.0954 L134.9683 369.1475 L132.7297 372.4903 L130.9886 376.1238 L129.7449 380.048 L128.9987 384.2629 L128.75 388.7684 L128.75 404.7051" clip-path="url(#clipPath2)"/>
      <path stroke-dasharray="none" d="M128.75 412.7051 L133.75 400.7051 L128.75 403.7051 L123.75 400.7051 Z" clip-path="url(#clipPath2)" stroke="none"/>
      <path fill="none" stroke-dasharray="none" d="M329.75 434.2437 L360.75 434.2437" clip-path="url(#clipPath2)"/>
      <path stroke-dasharray="none" d="M368.75 434.2437 L356.75 429.2437 L359.75 434.2437 L356.75 439.2437 Z" clip-path="url(#clipPath2)" stroke="none"/>
      <path fill="none" stroke-dasharray="none" d="M487.75 434.2437 L518.75 434.2437" clip-path="url(#clipPath2)"/>
      <path stroke-dasharray="none" d="M526.75 434.2437 L514.75 429.2437 L517.75 434.2437 L514.75 439.2437 Z" clip-path="url(#clipPath2)" stroke="none"/>
      <path fill="none" stroke-dasharray="none" d="M139.9794 412.7295 L140.0455 412.6027 L143.3865 408.4146 L148.7885 404.7036 L156.2516 401.4696 L165.7757 398.7126 L177.3609 396.4327 L191.0071 394.6298 L206.7143 393.3039 L224.4826 392.455 L241.1927 391.9125 L277.2368 390.1208 L310.1737 387.1871 L340.0034 383.1114 L366.7259 377.8937 L382.3315 374.3046" clip-path="url(#clipPath2)"/>
      <path stroke-dasharray="none" d="M390.1279 372.5114 L377.3125 370.3283 L381.3569 374.5287 L379.5539 380.0739 Z" clip-path="url(#clipPath2)" stroke="none"/>
      <path fill="none" stroke-dasharray="none" d="M318.4344 412.7437 L390.6877 380.504" clip-path="url(#clipPath2)"/>
      <path stroke-dasharray="none" d="M397.9934 377.2442 L384.9975 377.5679 L389.7745 380.9115 L389.0722 386.7 Z" clip-path="url(#clipPath2)" stroke="none"/>
      <path fill="none" stroke-dasharray="none" d="M428.25 412.7437 L428.25 390.7437" clip-path="url(#clipPath2)"/>
      <path stroke-dasharray="none" d="M428.25 382.7437 L423.25 394.7437 L428.25 391.7437 L433.25 394.7437 Z" clip-path="url(#clipPath2)" stroke="none"/>
      <path fill="none" stroke-dasharray="none" d="M526.75 413.7923 L463.5988 381.7047" clip-path="url(#clipPath2)"/>
      <path stroke-dasharray="none" d="M456.4667 378.0808 L464.8999 387.9742 L464.4903 382.1577 L469.4298 379.0591 Z" clip-path="url(#clipPath2)" stroke="none"/>
      <path fill="none" stroke-dasharray="none" d="M526.7451 377.8232 L477.0818 370.724" clip-path="url(#clipPath2)"/>
      <path stroke-dasharray="none" d="M469.1623 369.5919 L480.334 376.2397 L478.0717 370.8655 L481.7491 366.3403 Z" clip-path="url(#clipPath2)" stroke="none"/>
      <text x="506.3154" font-size="15" y="-72.9313" clip-path="url(#clipPath2)" font-family="sans-serif" stroke-dasharray="none" stroke="none" xml:space="preserve">Wizard - edit</text>
      <rect x="100.5" y="-90.0119" clip-path="url(#clipPath2)" fill="none" width="492" rx="4" ry="4" height="176.991"/>
      <text x="516.2471" y="55.193" clip-path="url(#clipPath2)" font-family="sans-serif" stroke-dasharray="none" stroke="none" xml:space="preserve">Confirm</text>
      <rect x="497" y="28.9792" clip-path="url(#clipPath2)" fill="none" width="80.5" stroke-dasharray="none" height="43"/>
      <text x="506.2393" y="-26.4215" clip-path="url(#clipPath2)" font-family="sans-serif" stroke-dasharray="none" stroke="none" xml:space="preserve">Parameters</text>
      <rect x="497" y="-52.6354" clip-path="url(#clipPath2)" fill="none" width="80.5" stroke-dasharray="none" height="43"/>
      <text x="372.2389" y="-26.4215" clip-path="url(#clipPath2)" font-family="sans-serif" stroke-dasharray="none" stroke="none" xml:space="preserve">Algorithms</text>
      <rect x="341.0807" y="-52.6354" clip-path="url(#clipPath2)" fill="none" width="119" stroke-dasharray="none" height="43"/>
      <text x="201.3138" y="-26.4215" clip-path="url(#clipPath2)" font-family="sans-serif" stroke-dasharray="none" stroke="none" xml:space="preserve">Transformations</text>
      <rect x="185.1615" y="-52.6354" clip-path="url(#clipPath2)" fill="none" width="119" stroke-dasharray="none" height="43"/>
      <text x="132.8213" y="46.5784" clip-path="url(#clipPath2)" font-family="sans-serif" stroke-dasharray="none" stroke="none" xml:space="preserve">Mail input</text>
      <rect x="115.5" y="20.3646" clip-path="url(#clipPath2)" fill="none" width="86" stroke-dasharray="none" height="43"/>
      <text x="357.5732" y="49.0784" clip-path="url(#clipPath2)" font-family="sans-serif" stroke-dasharray="none" stroke="none" xml:space="preserve">Cancel</text>
      <ellipse clip-path="url(#clipPath2)" fill="none" stroke-dasharray="none" rx="43" cx="376.25" ry="19" cy="44.3646"/>
      <text x="328.1631" y="220.5753" clip-path="url(#clipPath2)" font-family="sans-serif" stroke-dasharray="none" stroke="none" font-weight="bold" xml:space="preserve">INDEX</text>
      <rect x="308" y="196.8614" clip-path="url(#clipPath2)" fill="none" width="77" stroke-dasharray="none" height="38" stroke-width="3"/>
      <text x="111.1947" y="176.0265" clip-path="url(#clipPath2)" font-family="sans-serif" stroke-dasharray="none" stroke="none" xml:space="preserve">Algorithm</text>
      <text x="112.8617" y="190.7276" clip-path="url(#clipPath2)" font-family="sans-serif" stroke-dasharray="none" stroke="none" xml:space="preserve">overview</text>
      <rect x="93.5365" y="157.1632" clip-path="url(#clipPath2)" fill="none" width="86" stroke-dasharray="none" height="43"/>
      <text x="104.1927" y="251.1379" clip-path="url(#clipPath2)" font-family="sans-serif" stroke-dasharray="none" stroke="none" xml:space="preserve">CPP Library</text>
      <rect x="93.5365" y="224.924" clip-path="url(#clipPath2)" fill="none" width="86" stroke-dasharray="none" height="43"/>
      <text x="320.8301" y="136.5837" clip-path="url(#clipPath2)" font-family="sans-serif" stroke-dasharray="none" stroke="none" xml:space="preserve">Summary</text>
      <rect x="303.5" y="110.3698" clip-path="url(#clipPath2)" fill="none" width="86" stroke-dasharray="none" height="43"/>
      <text x="195.3231" y="134.0837" clip-path="url(#clipPath2)" font-family="sans-serif" stroke-dasharray="none" stroke="none" xml:space="preserve">Duplicate</text>
      <ellipse clip-path="url(#clipPath2)" fill="none" stroke-dasharray="none" rx="43" cx="220.3368" ry="19" cy="129.3698"/>
      <text x="488.0475" y="218.0753" clip-path="url(#clipPath2)" font-family="sans-serif" stroke-dasharray="none" stroke="none" xml:space="preserve">Task submitted</text>
      <rect x="474.3733" y="191.8614" clip-path="url(#clipPath2)" fill="none" width="108.7118" stroke-dasharray="none" height="43"/>
      <text x="459.4118" y="129.2331" clip-path="url(#clipPath2)" font-family="sans-serif" stroke-dasharray="none" stroke="none" xml:space="preserve">Cancel</text>
      <text x="467.0846" y="143.9342" clip-path="url(#clipPath2)" font-family="sans-serif" stroke-dasharray="none" stroke="none" xml:space="preserve">task</text>
      <ellipse clip-path="url(#clipPath2)" fill="none" stroke-dasharray="none" rx="43" cx="478.0885" ry="19" cy="131.8698"/>
      <path fill="none" stroke-dasharray="none" d="M537.25 -9.6354 L537.25 20.9792" clip-path="url(#clipPath2)"/>
      <path stroke-dasharray="none" d="M537.25 28.9792 L542.25 16.9792 L537.25 19.9792 L532.25 16.9792 Z" clip-path="url(#clipPath2)" stroke="none"/>
      <path fill="none" stroke-dasharray="none" d="M460.0807 -31.1354 L489 -31.1354" clip-path="url(#clipPath2)"/>
      <path stroke-dasharray="none" d="M497 -31.1354 L485 -36.1354 L488 -31.1354 L485 -26.1354 Z" clip-path="url(#clipPath2)" stroke="none"/>
      <path fill="none" stroke-dasharray="none" d="M304.1615 -31.1354 L333.0807 -31.1354" clip-path="url(#clipPath2)"/>
      <path stroke-dasharray="none" d="M341.0807 -31.1354 L329.0807 -36.1354 L332.0807 -31.1354 L329.0807 -26.1354 Z" clip-path="url(#clipPath2)" stroke="none"/>
      <path fill="none" stroke-dasharray="none" d="M158.5 20.3389 L158.5 1.7146 L159.1058 -5.9846 L160.9233 -12.6573 L163.9524 -18.3034 L168.1932 -22.9229 L173.6456 -26.5159 L177.4097 -27.9655 L177.5079 -27.9847" clip-path="url(#clipPath2)"/>
      <path stroke-dasharray="none" d="M185.236 -30.0524 L172.3514 -31.7809 L176.5418 -27.7262 L174.9361 -22.1207 Z" clip-path="url(#clipPath2)" stroke="none"/>
      <path fill="none" stroke-dasharray="none" d="M282.1337 -9.6354 L343.0745 25.3299" clip-path="url(#clipPath2)"/>
      <path stroke-dasharray="none" d="M350.0135 29.3112 L342.0934 19.0024 L342.2072 24.8322 L337.1167 27.6761 Z" clip-path="url(#clipPath2)" stroke="none"/>
      <path fill="none" stroke-dasharray="none" d="M201.5 42.3583 L325.265 43.7792" clip-path="url(#clipPath2)"/>
      <path stroke-dasharray="none" d="M333.2645 43.8711 L321.3227 38.7336 L324.2651 43.7677 L321.2079 48.733 Z" clip-path="url(#clipPath2)" stroke="none"/>
      <path fill="none" stroke-dasharray="none" d="M393.6521 -9.6354 L384.7656 17.9399" clip-path="url(#clipPath2)"/>
      <path stroke-dasharray="none" d="M382.3118 25.5543 L390.7515 15.6664 L385.0724 16.9881 L381.2335 12.5991 Z" clip-path="url(#clipPath2)" stroke="none"/>
      <path fill="none" stroke-dasharray="none" d="M497 -12.2604 L412.9815 27.1395" clip-path="url(#clipPath2)"/>
      <path stroke-dasharray="none" d="M405.7384 30.5362 L418.726 29.9682 L413.8869 26.715 L414.4802 20.9143 Z" clip-path="url(#clipPath2)" stroke="none"/>
      <path fill="none" stroke-dasharray="none" d="M497 48.9505 L427.0863 46.2953" clip-path="url(#clipPath2)"/>
      <path stroke-dasharray="none" d="M419.092 45.9917 L430.8936 51.4435 L428.0856 46.3332 L431.2732 41.4507 Z" clip-path="url(#clipPath2)" stroke="none"/>
      <path fill="none" stroke-dasharray="none" d="M289.3615 330.0499 L301.4625 316.4293 L313.1836 301.8336 L318.2584 294.3681 L322.8094 286.7909 L326.8365 279.1019 L330.3398 271.3011 L333.3194 263.3886 L335.775 255.3643 L339.2404 242.6004" clip-path="url(#clipPath2)"/>
      <path stroke-dasharray="none" d="M341.3365 234.8799 L333.367 245.1506 L338.9784 243.5655 L343.0177 247.7707 Z" clip-path="url(#clipPath2)" stroke="none"/>
      <path fill="none" stroke-dasharray="none" d="M418.0467 345.2863 L360.8737 241.8628" clip-path="url(#clipPath2)"/>
      <path stroke-dasharray="none" d="M357.0033 234.8614 L358.433 247.7825 L361.3575 242.738 L367.1848 242.9445 Z" clip-path="url(#clipPath2)" stroke="none"/>
      <path fill="none" stroke-dasharray="none" d="M317.1219 234.8707 L316.6836 235.3168 L312.3787 241.0054 L308.0844 247.9904 L303.8006 256.2717 L299.5273 265.8493 L291.0125 288.8935 L279.893 322.4558" clip-path="url(#clipPath2)"/>
      <path stroke-dasharray="none" d="M277.377 330.0499 L285.8972 320.2313 L280.2075 321.5066 L276.4047 317.0863 Z" clip-path="url(#clipPath2)" stroke="none"/>
      <path fill="none" stroke-dasharray="none" d="M307.9611 215.8548 L268.1899 209.1285 L232.6143 202.1894 L191.0313 192.3893 L187.3206 191.4547" clip-path="url(#clipPath2)"/>
      <path stroke-dasharray="none" d="M179.5629 189.5007 L189.9782 197.2802 L188.2903 191.6989 L192.4207 187.5831 Z" clip-path="url(#clipPath2)" stroke="none"/>
      <path fill="none" stroke-dasharray="none" d="M179.5519 178.6632 L193.0442 178.6632 L204.6341 178.9247 L216.287 179.7094 L228.0029 181.0171 L239.7819 182.848 L263.5288 188.079 L287.5278 195.4024 L300.443 199.883" clip-path="url(#clipPath2)"/>
      <path stroke-dasharray="none" d="M308.001 202.5051 L298.3027 193.8481 L299.4982 199.5552 L295.0251 203.2957 Z" clip-path="url(#clipPath2)" stroke="none"/>
      <path fill="none" stroke-dasharray="none" d="M308.0052 219.4122 L280.966 221.9063 L205.8305 229.2098 L187.5104 231.2172" clip-path="url(#clipPath2)"/>
      <path stroke-dasharray="none" d="M179.558 232.0885 L192.0312 235.7517 L188.5044 231.1082 L190.942 225.8112 Z" clip-path="url(#clipPath2)" stroke="none"/>
      <path fill="none" stroke-dasharray="none" d="M179.5258 244.3403 L195.9842 243.5425 L220.1291 241.7988 L243.9246 238.9254 L267.3709 234.9222 L290.4678 229.7893 L300.2415 227.3599" clip-path="url(#clipPath2)"/>
      <path stroke-dasharray="none" d="M308.0052 225.43 L295.1534 223.4724 L299.271 227.6011 L297.5657 233.1771 Z" clip-path="url(#clipPath2)" stroke="none"/>
      <path fill="none" stroke-dasharray="none" d="M369.8621 63.1538 L356.3846 102.7956" clip-path="url(#clipPath2)"/>
      <path stroke-dasharray="none" d="M353.8096 110.3698 L362.4061 100.6179 L356.7065 101.8488 L352.9383 97.399 Z" clip-path="url(#clipPath2)" stroke="none"/>
      <path fill="none" stroke-dasharray="none" d="M346.5 153.3698 L346.5 188.8614" clip-path="url(#clipPath2)"/>
      <path stroke-dasharray="none" d="M346.5 196.8614 L351.5 184.8614 L346.5 187.8614 L341.5 184.8614 Z" clip-path="url(#clipPath2)" stroke="none"/>
      <path fill="none" stroke-dasharray="none" d="M303.5 131.0177 L271.2921 130.3795" clip-path="url(#clipPath2)"/>
      <path stroke-dasharray="none" d="M263.2936 130.221 L275.1922 135.4578 L272.2918 130.3993 L275.3903 125.4597 Z" clip-path="url(#clipPath2)" stroke="none"/>
      <path fill="none" stroke-dasharray="none" d="M177.2963 129.3698 L166.9766 129.3698 L164.9899 128.7545 L163.2681 126.9087 L161.8112 123.8324 L160.6191 119.5255 L159.0298 107.22 L158.5 89.9924 L158.5 71.3435" clip-path="url(#clipPath2)"/>
      <path stroke-dasharray="none" d="M158.5 63.3435 L153.5 75.3435 L158.5 72.3435 L163.5 75.3435 Z" clip-path="url(#clipPath2)" stroke="none"/>
      <path fill="none" stroke-dasharray="none" d="M526.7217 367.5042 L525.332 366.8245 L521.6617 364.3387 L518.274 361.3006 L515.169 357.71 L512.3466 353.5671 L509.9633 349.639 L507.6571 345.084 L506.1007 340.2575 L505.2942 335.1594 L505.2375 329.7897 L505.9307 324.1485 L507.3737 318.2356 L509.5667 312.0512 L512.5094 305.5952 L515.4585 299.7358 L521.2644 287.1172 L525.4115 275.6284 L527.8998 265.2694 L528.7292 256.0404 L528.7292 242.9028" clip-path="url(#clipPath2)"/>
      <path stroke-dasharray="none" d="M528.7292 234.9028 L523.7292 246.9028 L528.7292 243.9028 L533.7292 246.9028 Z" clip-path="url(#clipPath2)" stroke="none"/>
      <path fill="none" stroke-dasharray="none" d="M537.8547 72.0038 L538.425 92.303 L538.5458 109.1117 L537.947 125.3183 L536.6286 140.9227 L534.5906 155.925 L530.017 183.9657" clip-path="url(#clipPath2)"/>
      <path stroke-dasharray="none" d="M528.7292 191.8614 L535.5958 180.8228 L530.178 182.9788 L525.7261 179.213 Z" clip-path="url(#clipPath2)" stroke="none"/>
      <path fill="none" stroke-dasharray="none" d="M474.3932 201.6163 L473.2279 201.3644 L462.4462 198.7465 L452.8062 195.8006 L444.3079 192.5268 L436.9512 188.9251 L430.7363 184.9954 L425.663 180.7378 L421.7314 176.1522 L418.9415 171.2387 L416.9691 166.7254 L414.4556 161.863 L411.3534 157.4307 L407.6625 153.4286 L403.3828 149.8566 L398.5142 146.7147 L396.8167 145.8712 L396.7232 145.8359" clip-path="url(#clipPath2)"/>
      <path stroke-dasharray="none" d="M389.3993 142.617 L398.3733 152.0228 L397.6386 146.2383 L402.3969 142.868 Z" clip-path="url(#clipPath2)" stroke="none"/>
      <path fill="none" stroke-dasharray="none" d="M474.3733 214.1071 L392.9992 215.2235" clip-path="url(#clipPath2)"/>
      <path stroke-dasharray="none" d="M385 215.3332 L397.0675 220.1681 L393.9991 215.2098 L396.9303 210.1691 Z" clip-path="url(#clipPath2)" stroke="none"/>
      <path fill="none" stroke-dasharray="none" d="M389.5 131.8698 L427.0885 131.8698" clip-path="url(#clipPath2)"/>
      <path stroke-dasharray="none" d="M435.0885 131.8698 L423.0885 126.8698 L426.0885 131.8698 L423.0885 136.8698 Z" clip-path="url(#clipPath2)" stroke="none"/>
      <path fill="none" stroke-dasharray="none" d="M437.7625 125.2401 L424.8581 123.6071 L409.8791 122.9604 L397.4296 123.5108 L397.3305 123.5242" clip-path="url(#clipPath2)"/>
      <path stroke-dasharray="none" d="M389.3789 124.4024 L401.8552 128.0549 L398.3245 123.4145 L400.7575 118.1154 Z" clip-path="url(#clipPath2)" stroke="none"/>
    </g>
  </g>
</svg>
